…
##   mean(BodyWeight, na.rm = T)
## 1                    153.9349

I used to summarize function to find the mean body weight of all the college students in the dataset. The mean body weight of all college students in the joined dataset is 153.93 lbs

Political2<-Political %>% mutate(Sex= case_when(Sex == 0 ~ "Male", Sex == 1 ~ "Female"))

I used the mutate function in order to change the numeric values for sex of one dataset into categorical values so values would match up for the ‘Sex’ varibles in both datasets Backpack and Political.

Joinedset %>%
  group_by(Major) %>%
  summarize(mean_BodyWeight=mean(BodyWeight,na.rm=T))

## # A tibble: 41 x 2
##    Major     mean_BodyWeight
##    <fct>               <dbl>
##  1 Act.                 175 
##  2 Aero                 159.
##  3 AERO                 140 
##  4 Aero Eng.            190 
##  5 AGB                  173.
##  6 APIO                 195 
##  7 ARCE                 146.
##  8 Arch                 210 
##  9 Bio                  151.
## 10 Bus                  150.
## # … with 31 more rows
…
Joinedset %>%group_by(Major)%>%summarize(mean_BW=mean(BackpackWeight,na.rm=T))

## # A tibble: 41 x 2
##    Major     mean_BW
##    <fct>       <dbl>
##  1 Act.        10   
##  2 Aero        19.7 
##  3 AERO         9   
##  4 Aero Eng.   25   
##  5 AGB          9   
##  6 APIO         6   
##  7 ARCE         9.37
##  8 Arch        15   
##  9 Bio         10.6 
## 10 Bus         13.9 
## # … with 31 more rows

Joinedset %>%group_by(Major,Status)%>%summarize(mean_units=mean(Units,na.rm=T))

## # A tibble: 44 x 3
## # Groups:   Major [41]
##    Major     Status mean_units
##    <fct>     <fct>       <dbl>
##  1 Act.      U            19  
##  2 Aero      U            13.9
##  3 AERO      U            12  
##  4 Aero Eng. U            14  
##  5 AGB       U            14.9
##  6 APIO      U            16  
##  7 ARCE      U            15.4
##  8 Arch      U            17  
##  9 Bio       U            13.1
## 10 Bus       U            15.1
## # … with 34 more rows
…
